<?xml version="1.0" standalone="no"?>
<!DOCTYPE svg PUBLIC "-//W3C//DTD SVG 1.1//EN" "http://www.w3.org/Graphics/SVG/1.1/DTD/svg11.dtd" >
<svg xmlns="http://www.w3.org/2000/svg">
<metadata>Generated by IcoMoon</metadata>
<defs>
<font id="icomoon" horiz-adv-x="1024">
<font-face units-per-em="1024" ascent="960" descent="-64" />
<missing-glyph horiz-adv-x="1024" />
<glyph unicode="&#x20;" horiz-adv-x="512" d="" />
<glyph unicode="&#xe421;" glyph-name="texture" d="M396 42.667l500 500v-122l-378-378h-122zM896 128.667c0-45.948-40.071-86-86-86h-84l170 170v-84zM214 810.667h84l-170-170v84c0 46 40 86 86 86zM506 810.667h122l-500-500v122zM832 806.667c30-8 54-30 62-60l-702-700c-29.35 8.386-51.612 30.641-60 60z" />
<glyph unicode="&#xe900;" glyph-name="tag" d="M925.056 333.568l-297.952-297.952c-25.312-25.312-66.368-25.312-91.68 0l-365.248 365.28-90.24 279.328 65.92 65.92 126.304-126.304c-3.392-24.32 3.968-49.824 22.656-68.512 31.648-31.648 82.944-31.648 114.592 0 31.616 31.648 31.616 82.944 0 114.592-18.688 18.688-44.192 26.016-68.512 22.656l-126.304 126.304 64.448 64.48 280.768-88.8 365.248-365.28c25.312-25.344 25.312-66.368 0-91.712zM363.552 597.152c-6.336-6.336-16.576-6.336-22.912 0l-252.128 252.128c-6.336 6.336-6.336 16.608 0 22.912s16.608 6.336 22.912 0l252.096-252.096c6.368-6.336 6.368-16.608 0.032-22.944z" />
<glyph unicode="&#xe901;" glyph-name="sale" d="M896-32h-768c-53.024 0-96 43.008-96 96v448c0 53.024 42.976 96 96 96h64l271.776 208.576c-1.216 4.96-2.048 10.080-2.048 15.424 0 35.328 28.672 64 64 64s63.968-28.672 63.968-64c0-11.488-3.264-22.144-8.608-31.488l250.912-192.512h64c52.992 0 96-42.976 96-96v-448c0-52.992-43.008-96-96-96zM546.272 173.344h128.992v24.256h-101.76v182.016h-27.264v-206.272zM361.696 173.344l22.592 62.496h86.656l23.744-62.496h31.104l-84.096 206.24h-29.568l-79.296-206.24h28.864zM170.944 355.392c-5.888-9.088-8.832-18.848-8.832-29.248 0-9.504 2.4-18.048 7.232-25.728s12.16-14.048 21.984-19.264c7.552-4.032 20.768-8.32 39.648-12.864s31.072-7.904 36.608-10.048c8.608-3.328 14.784-7.328 18.592-12.16s5.728-10.432 5.728-16.896c0-6.336-1.952-12.256-5.824-17.664s-9.792-9.664-17.76-12.768c-7.936-3.136-17.088-4.672-27.456-4.672-11.68 0-22.176 2.016-31.52 6.144-9.376 4.064-16.256 9.44-20.672 16.096s-7.296 15.168-8.512 25.504l-25.76-2.24c0.384-13.792 4.16-26.112 11.328-37.024 7.168-10.944 17.024-19.136 29.6-24.576 12.608-5.44 28.192-8.16 46.816-8.16 14.656 0 27.872 2.688 39.616 8.096 11.744 5.376 20.736 12.864 27.008 22.592 6.272 9.696 9.408 20 9.408 30.976 0 11.040-2.88 20.768-8.608 29.248-5.728 8.512-14.592 15.488-26.624 20.992-8.288 3.744-23.456 8.128-45.536 13.12-22.112 5.024-35.776 9.952-40.992 14.752-5.344 4.736-8 10.848-8 18.24 0 8.576 3.776 15.84 11.296 21.888s19.488 9.088 35.936 9.088c15.808 0 27.744-3.328 35.808-9.92 8.096-6.624 12.8-16.416 14.208-29.344l26.24 1.984c-0.48 12.096-3.84 22.912-10.080 32.448-6.272 9.536-15.232 16.768-26.88 21.696s-25.088 7.36-40.352 7.36c-13.856 0-26.432-2.336-37.76-7.040-11.392-4.672-20-11.52-25.888-20.608zM565.696 782.4c-11.008-8.864-24.768-14.4-39.968-14.4-21.184 0-39.808 10.4-51.456 26.272l-250.272-186.272h576l-234.304 174.4zM861.952 197.6h-126.496v70.24h113.984v24.256h-113.984v63.264h121.76v24.256h-148.992v-206.24h153.76v24.224zM426.048 358.080c3.328-11.296 8.192-25.6 14.624-42.976l21.728-57.024h-70.368l22.88 60.384c4.704 13.024 8.416 26.24 11.136 39.616z" />
<glyph unicode="&#xe902;" glyph-name="car" d="M864 256h-736c-35.328 0-64 28.672-64 64v160c0 35.328 28.672 64 64 64h32c0 0 47.328 144 61.312 192s28.672 64 64.032 64h421.312c35.328 0 46.016-9.984 64-64s61.344-192 61.344-192h32c35.328 0 64-28.672 64-64v-160c0-35.328-28.672-64-64-64zM288 320h416v32h-416v-32zM704 544c0 35.328-28.672 68-64 68s-64-32.672-64-68c0-0.832 128-0.832 128 0zM288 384h416v32h-416v-32zM288 448h416v32h-416v-32zM129.984 416c0-35.328 28.672-64 64-64s64 28.672 64 64-28.672 64-64 64-64-28.672-64-64zM738.656 736c-8 22.016-14.304 32-32 32h-194.656v-32h16c8.832 0 16-7.168 16-16s-7.168-16-16-16h-64c-8.832 0-16 7.168-16 16s7.168 16 16 16h16v32h-194.656c-17.696 0-24.032-4-32-32-8.032-28-61.344-192-61.344-192h366.72c0.736 43.648 36.16 84.576 79.84 84.576 43.712 0 79.104-40.896 79.872-84.576h81.568c0 0-53.344 169.984-61.344 192zM798.016 478.016c-35.328 0-64-28.672-64-64s28.672-64 64-64 64 28.672 64 64-28.672 64-64 64zM224 144c0-26.496-21.504-48-48-48s-48 21.504-48 48v80h96v-80zM864 144c0-26.496-21.504-48-48-48s-48 21.504-48 48v80h96v-80z" />
</font></defs></svg>